Basic syntax and vocabulary for data wrangling and graphics – WOAH - DATA SCIENCE TRAINING PROGRAM
…
2.2 Re-arranging rows with arrange()

We can arrange rows of a data set with arrange(), for example by car make or mpg of gears:

# creating a dataset with same variables but rows sorted by mpg
dat1 = mtcars_data %>% arrange(mpg)
dat1

# A tibble: 32 × 12
   make          mpg   cyl  disp    hp  drat    wt  qsec    vs    am  gear  carb
   <chr>       <dbl> <dbl> <dbl> <dbl> <dbl> <dbl> <dbl> <dbl> <dbl> <dbl> <dbl>
 1 Cadillac F…  10.4     8  472    205  2.93  5.25  18.0     0     0     3     4
 2 Lincoln Co…  10.4     8  460    215  3     5.42  17.8     0     0     3     4
 3 Camaro Z28   13.3     8  350    245  3.73  3.84  15.4     0     0     3     4
 4 Duster 360   14.3     8  360    245  3.21  3.57  15.8     0     0     3     4
 5 Chrysler I…  14.7     8  440    230  3.23  5.34  17.4     0     0     3     4
 6 Maserati B…  15       8  301    335  3.54  3.57  14.6     0     1     5     8
 7 Merc 450SLC  15.2     8  276.   180  3.07  3.78  18       0     0     3     3
 8 AMC Javelin  15.2     8  304    150  3.15  3.44  17.3     0     0     3     2
 9 Dodge Chal…  15.5     8  318    150  2.76  3.52  16.9     0     0     3     2
10 Ford Pante…  15.8     8  351    264  4.22  3.17  14.5     0     1     5     4
# ℹ 22 more rows

2.3 Selecting columns

We can select a subset of columns with select()

# creaintg a subset of the data containing only variables mpg and cyl
dat2 = mtcars_data %>% select(mpg,cyl)
dat2

# A tibble: 32 × 2
     mpg   cyl
   <dbl> <dbl>
 1  21       6
 2  21       6
 3  22.8     4
 4  21.4     6
 5  18.7     8
 6  18.1     6
 7  14.3     8
 8  24.4     4
 9  22.8     4
10  19.2     6
# ℹ 22 more rows

2.4 Creating a new variable with mutate()

We can create a new variable, for example the power to weight ratio, defined as hp/wt with mutate() as:

# creating a new dataset with new variable  ratio, defined as hp/wt
dat3 = mtcars_data %>% mutate(ratio = hp/wt)
dat3

# A tibble: 32 × 13
   make    mpg   cyl  disp    hp  drat    wt  qsec    vs    am  gear  carb ratio
   <chr> <dbl> <dbl> <dbl> <dbl> <dbl> <dbl> <dbl> <dbl> <dbl> <dbl> <dbl> <dbl>
 1 Mazd…  21       6  160    110  3.9   2.62  16.5     0     1     4     4  42.0
 2 Mazd…  21       6  160    110  3.9   2.88  17.0     0     1     4     4  38.3
 3 Dats…  22.8     4  108     93  3.85  2.32  18.6     1     1     4     1  40.1
 4 Horn…  21.4     6  258    110  3.08  3.22  19.4     1     0     3     1  34.2
 5 Horn…  18.7     8  360    175  3.15  3.44  17.0     0     0     3     2  50.9
 6 Vali…  18.1     6  225    105  2.76  3.46  20.2     1     0     3     1  30.3
 7 Dust…  14.3     8  360    245  3.21  3.57  15.8     0     0     3     4  68.6
 8 Merc…  24.4     4  147.    62  3.69  3.19  20       1     0     4     2  19.4
 9 Merc…  22.8     4  141.    95  3.92  3.15  22.9     1     0     4     2  30.2
10 Merc…  19.2     6  168.   123  3.92  3.44  18.3     1     0     4     4  35.8
# ℹ 22 more rows
…
